<?xml version="1.0" encoding="UTF-8"?>
<svg xmlns="http://www.w3.org/2000/svg" xmlns:xlink="http://www.w3.org/1999/xlink" viewBox="0 0 20 20" enable-background="new 0 0 20 20">
  <path d="
    M 10 3
    h 3
    v -2
    l 4 3
    l -4 3
    v -2
    h -2
    l -2.5 3.5
    h -3
    z" fill="#707070" />

  <path d="
    M1 11
    h 10
    v 2
    l 4 -3
    l -4 -3
    v 2
    h -10
    z" fill="#707070" />

  <path d="
    M 8 14
    h 7
    v -2
    l 4 3
    l -4 3
    v -2
    h -8
    l -4.5 -4.5
    h 3
    z" fill="#707070" />
</svg>
